^C:\DEV\OS\CA1_OPERATINGSYSTEMS\OS_PROJECT\OS_PROJECT\DEBUG\MAIN.OBJ
/OUT:"C:\DEV\OS\CA1_OPERATINGSYSTEMS\OS_PROJECT\DEBUG\OS_PROJECT.EXE" /INCREMENTAL /NOLOGO KERNEL32.LIB USER32.LIB GDI32.LIB WINSPOOL.LIB COMDLG32.LIB ADVAPI32.LIB SHELL32.LIB OLE32.LIB OLEAUT32.LIB UUID.LIB ODBC32.LIB ODBCCP32.LIB /MANIFEST /MANIFESTUAC:"level='asInvoker' uiAccess='false'" /manifest:embed /DEBUG:FASTLINK /PDB:"C:\DEV\OS\CA1_OPERATINGSYSTEMS\OS_PROJECT\DEBUG\OS_PROJECT.PDB" /TLBID:1 /DYNAMICBASE /NXCOMPAT /IMPLIB:"C:\DEV\OS\CA1_OPERATINGSYSTEMS\OS_PROJECT\DEBUG\OS_PROJECT.LIB" /MACHINE:X86 DEBUG\MAIN.OBJ
^C:\DEV\OS\CA1_OPERATINGSYSTEMS\OS_PROJECT\OS_PROJECT\DEBUG\JOB.OBJ|C:\DEV\OS\CA1_OPERATINGSYSTEMS\OS_PROJECT\OS_PROJECT\DEBUG\MAIN.OBJ
/OUT:"C:\DEV\OS\CA1_OPERATINGSYSTEMS\OS_PROJECT\DEBUG\OS_PROJECT.EXE" /INCREMENTAL /NOLOGO KERNEL32.LIB USER32.LIB GDI32.LIB WINSPOOL.LIB COMDLG32.LIB ADVAPI32.LIB SHELL32.LIB OLE32.LIB OLEAUT32.LIB UUID.LIB ODBC32.LIB ODBCCP32.LIB /MANIFEST /MANIFESTUAC:"level='asInvoker' uiAccess='false'" /manifest:embed /DEBUG:FASTLINK /PDB:"C:\DEV\OS\CA1_OPERATINGSYSTEMS\OS_PROJECT\DEBUG\OS_PROJECT.PDB" /TLBID:1 /DYNAMICBASE /NXCOMPAT /IMPLIB:"C:\DEV\OS\CA1_OPERATINGSYSTEMS\OS_PROJECT\DEBUG\OS_PROJECT.LIB" /MACHINE:X86 DEBUG\JOB.OBJDEBUG\MAIN.OBJ
